0.0047709091 0.0049018182 0.0050454545 0.0052272727 0.0054090909 0.0055363636 0.0056090909 0.0056818182 0.0057327273 0.0057763636
0.0058764   0.0059239   0.0051449   0.0051206   0.0058706   0.0049424 0.0057978   0.0048772   0.0047133   0.0054447
0.0058834   0.0055887   0.0054371   0.0048345   0.0049928   0.0058656   0.0046694   0.0053245   0.0058299   0.0055924
0.0055729   0.0057963   0.0052683   0.0052811   0.0047667   0.0045462   0.0052329   0.0048984   0.0056689   0.0047706
0.0056219   0.0051764    0.005215   0.0054612   0.0045533   0.0048888   0.0049968   0.0046079   0.0056829   0.0049253
0.0052881   0.0045895   0.0058848   0.0055225   0.0046199   0.0049717   0.0058487   0.0048357   0.0047132   0.0054347
0.0045024   0.0053297   0.0056072   0.0047677   0.0050824   0.0056979   0.0049876    0.004963   0.0059323   0.0058681
0.0056333   0.0047207   0.0049615   0.0048101   0.0047374   0.0053524   0.0052605   0.0055093   0.0046956   0.0057775
0.0045354   0.0052043   0.0049462   0.0057234   0.0047953   0.0047039   0.0059987   0.0055888    0.004887   0.0052687
0.0049209   0.0047098   0.0051355   0.0050488    0.004809   0.0048192   0.0056541   0.0054579   0.0052771   0.0053144
